Intro to Visualization
…
annual_esc %>% mutate(log_escapement = log10(escapement))

# A tibble: 1,484 × 5
   species sasap_region                           year escapement log_escapement
   <chr>   <chr>                                 <dbl>      <dbl>          <dbl>
 1 Chinook Alaska Peninsula and Aleutian Islands  1974       1092           3.04
 2 Chinook Alaska Peninsula and Aleutian Islands  1975       1917           3.28
 3 Chinook Alaska Peninsula and Aleutian Islands  1976       3045           3.48
 4 Chinook Alaska Peninsula and Aleutian Islands  1977       4844           3.69
 5 Chinook Alaska Peninsula and Aleutian Islands  1978       3901           3.59
 6 Chinook Alaska Peninsula and Aleutian Islands  1979      10463           4.02
 7 Chinook Alaska Peninsula and Aleutian Islands  1980       4506           3.65
 8 Chinook Alaska Peninsula and Aleutian Islands  1981       5046           3.70
 9 Chinook Alaska Peninsula and Aleutian Islands  1982       6503           3.81
10 Chinook Alaska Peninsula and Aleutian Islands  1983      11589           4.06
# ℹ 1,474 more rows
…
